{
 "category": "",
 "charts": [],
 "content": "[{\"type\": \"header\", \"data\": {\"text\": \"Vos raccourcis\", \"level\": 4, \"col\": 12}}, {\"type\": \"shortcut\", \"data\": {\"shortcut_name\": \"Quality Goal\", \"col\": 4}}, {\"type\": \"shortcut\", \"data\": {\"shortcut_name\": \"Quality Procedure\", \"col\": 4}}, {\"type\": \"shortcut\", \"data\": {\"shortcut_name\": \"Quality Inspection\", \"col\": 4}}, {\"type\": \"shortcut\", \"data\": {\"shortcut_name\": \"Quality Review\", \"col\": 4}}, {\"type\": \"shortcut\", \"data\": {\"shortcut_name\": \"Quality Action\", \"col\": 4}}, {\"type\": \"shortcut\", \"data\": {\"shortcut_name\": \"Non Conformance\", \"col\": 4}}, {\"type\": \"spacer\", \"data\": {\"col\": 12}}, {\"type\": \"header\", \"data\": {\"text\": \"Rapports et donn\\u00e9es de base\", \"level\": 4, \"col\": 12}}, {\"type\": \"card\", \"data\": {\"card_name\": \"Goal and Procedure\", \"col\": 4}}, {\"type\": \"card\", \"data\": {\"card_name\": \"Feedback\", \"col\": 4}}, {\"type\": \"card\", \"data\": {\"card_name\": \"Meeting\", \"col\": 4}}, {\"type\": \"card\", \"data\": {\"card_name\": \"Review and Action\", \"col\": 4}}]",
 "creation": "2020-03-02 15:49:28.632014",
 "developer_mode_only": 0,
 "disable_user_customization": 0,
 "docstatus": 0,
 "doctype": "Workspace",
 "extends": "",
 "extends_another_page": 0,
 "hide_custom": 0,
 "icon": "quality",
 "idx": 0,
 "is_default": 0,
 "is_standard": 1,
 "label": "Quality",
 "links": [
  {
   "hidden": 0,
   "is_query_report": 0,
   "label": "Goal and Procedure",
   "link_count": 0,
   "onboard": 0,
   "type": "Card Break"
  },
  {
   "dependencies": "",
   "hidden": 0,
   "is_query_report": 0,
   "label": "Quality Goal",
   "link_count": 0,
   "link_to": "Quality Goal",
   "link_type": "DocType",
   "onboard": 1,
   "type": "Link"
  },
  {
   "dependencies": "",
   "hidden": 0,
   "is_query_report": 0,
   "label": "Quality Procedure",
   "link_count": 0,
   "link_to": "Quality Procedure",
   "link_type": "DocType",
   "onboard": 1,
   "type": "Link"
  },
  {
   "dependencies": "",
   "hidden": 0,
   "is_query_report": 0,
   "label": "Tree of Procedures",
   "link_count": 0,
   "link_to": "Quality Procedure",
   "link_type": "DocType",
   "onboard": 0,
   "type": "Link"
  },
  {
   "hidden": 0,
   "is_query_report": 0,
   "label": "Feedback",
   "link_count": 0,
   "onboard": 0,
   "type": "Card Break"
  },
  {
   "dependencies": "",
   "hidden": 0,
   "is_query_report": 0,
   "label": "Quality Feedback",
   "link_count": 0,
   "link_to": "Quality Feedback",
   "link_type": "DocType",
   "onboard": 1,
   "type": "Link"
  },
  {
   "dependencies": "",
   "hidden": 0,
   "is_query_report": 0,
   "label": "Quality Feedback Template",
   "link_count": 0,
   "link_to": "Quality Feedback Template",
   "link_type": "DocType",
   "onboard": 0,
   "type": "Link"
  },
  {
   "hidden": 0,
   "is_query_report": 0,
   "label": "Meeting",
   "link_count": 0,
   "onboard": 0,
   "type": "Card Break"
  },
  {
   "dependencies": "",
   "hidden": 0,
   "is_query_report": 0,
   "label": "Quality Meeting",
   "link_count": 0,
   "link_to": "Quality Meeting",
   "link_type": "DocType",
   "onboard": 0,
   "type": "Link"
  },
  {
   "hidden": 0,
   "is_query_report": 0,
   "label": "Review and Action",
   "link_count": 0,
   "onboard": 0,
   "type": "Card Break"
  },
  {
   "dependencies": "",
   "hidden": 0,
   "is_query_report": 0,
   "label": "Non Conformance",
   "link_count": 0,
   "link_to": "Non Conformance",
   "link_type": "DocType",
   "onboard": 0,
   "type": "Link"
  },
  {
   "dependencies": "",
   "hidden": 0,
   "is_query_report": 0,
   "label": "Quality Review",
   "link_count": 0,
   "link_to": "Quality Review",
   "link_type": "DocType",
   "onboard": 0,
   "type": "Link"
  },
  {
   "dependencies": "",
   "hidden": 0,
   "is_query_report": 0,
   "label": "Quality Action",
   "link_count": 0,
   "link_to": "Quality Action",
   "link_type": "DocType",
   "onboard": 0,
   "type": "Link"
  }
 ],
 "modified": "2021-10-02 07:14:32.385952",
 "modified_by": "Administrator",
 "module": "Quality Management",
 "name": "Quality",
 "onboarding": "",
 "owner": "Administrator",
 "parent_page": "",
 "pin_to_bottom": 0,
 "pin_to_top": 0,
 "public": 1,
 "roles": [],
 "sequence_id": 12,
 "shortcuts": [
  {
   "color": "Grey",
   "label": "Quality Goal",
   "link_to": "Quality Goal",
   "type": "DocType"
  },
  {
   "color": "Grey",
   "doc_view": "Tree",
   "label": "Quality Procedure",
   "link_to": "Quality Procedure",
   "type": "DocType"
  },
  {
   "color": "Grey",
   "label": "Quality Inspection",
   "link_to": "Quality Inspection",
   "type": "DocType"
  },
  {
   "color": "Grey",
   "doc_view": "",
   "format": "{} Open",
   "label": "Quality Review",
   "link_to": "Quality Review",
   "stats_filter": "{\"status\": \"Open\"}",
   "type": "DocType"
  },
  {
   "color": "Grey",
   "doc_view": "",
   "format": "{} Open",
   "label": "Quality Action",
   "link_to": "Quality Action",
   "stats_filter": "{\"status\": \"Open\"}",
   "type": "DocType"
  },
  {
   "color": "Grey",
   "doc_view": "",
   "format": "{} Open",
   "label": "Non Conformance",
   "link_to": "Non Conformance",
   "stats_filter": "{\"status\": \"Open\"}",
   "type": "DocType"
  }
 ],
 "title": "Quality"
}