{
 "category": "",
 "charts": [
  {
   "chart_name": "Asset Value Analytics",
   "label": "Asset Value Analytics"
  }
 ],
 "content": "[{\"type\": \"onboarding\", \"data\": {\"onboarding_name\": \"Assets\", \"col\": 12}}, {\"type\": \"chart\", \"data\": {\"chart_name\": \"Asset Value Analytics\", \"col\": 12}}, {\"type\": \"spacer\", \"data\": {\"col\": 12}}, {\"type\": \"header\", \"data\": {\"text\": \"Vos raccourcis\", \"level\": 4, \"col\": 12}}, {\"type\": \"shortcut\", \"data\": {\"shortcut_name\": \"Asset\", \"col\": 4}}, {\"type\": \"shortcut\", \"data\": {\"shortcut_name\": \"Asset Category\", \"col\": 4}}, {\"type\": \"shortcut\", \"data\": {\"shortcut_name\": \"Fixed Asset Register\", \"col\": 4}}, {\"type\": \"shortcut\", \"data\": {\"shortcut_name\": \"Dashboard\", \"col\": 4}}, {\"type\": \"spacer\", \"data\": {\"col\": 12}}, {\"type\": \"header\", \"data\": {\"text\": \"Rapports et donn\\u00e9es de base\", \"level\": 4, \"col\": 12}}, {\"type\": \"card\", \"data\": {\"card_name\": \"Assets\", \"col\": 4}}, {\"type\": \"card\", \"data\": {\"card_name\": \"Maintenance\", \"col\": 4}}, {\"type\": \"card\", \"data\": {\"card_name\": \"Reports\", \"col\": 4}}]",
 "creation": "2020-03-02 15:43:27.634865",
 "developer_mode_only": 0,
 "disable_user_customization": 0,
 "docstatus": 0,
 "doctype": "Workspace",
 "extends": "",
 "extends_another_page": 0,
 "hide_custom": 0,
 "icon": "assets",
 "idx": 0,
 "is_default": 0,
 "is_standard": 1,
 "label": "Assets",
 "links": [
  {
   "hidden": 0,
   "is_query_report": 0,
   "label": "Assets",
   "link_count": 0,
   "onboard": 0,
   "type": "Card Break"
  },
  {
   "dependencies": "",
   "hidden": 0,
   "is_query_report": 0,
   "label": "Asset",
   "link_count": 0,
   "link_to": "Asset",
   "link_type": "DocType",
   "onboard": 1,
   "type": "Link"
  },
  {
   "dependencies": "",
   "hidden": 0,
   "is_query_report": 0,
   "label": "Location",
   "link_count": 0,
   "link_to": "Location",
   "link_type": "DocType",
   "onboard": 1,
   "type": "Link"
  },
  {
   "dependencies": "",
   "hidden": 0,
   "is_query_report": 0,
   "label": "Asset Category",
   "link_count": 0,
   "link_to": "Asset Category",
   "link_type": "DocType",
   "onboard": 1,
   "type": "Link"
  },
  {
   "dependencies": "",
   "hidden": 0,
   "is_query_report": 0,
   "label": "Asset Movement",
   "link_count": 0,
   "link_to": "Asset Movement",
   "link_type": "DocType",
   "onboard": 0,
   "type": "Link"
  },
  {
   "hidden": 0,
   "is_query_report": 0,
   "label": "Maintenance",
   "link_count": 0,
   "onboard": 0,
   "type": "Card Break"
  },
  {
   "dependencies": "",
   "hidden": 0,
   "is_query_report": 0,
   "label": "Asset Maintenance Team",
   "link_count": 0,
   "link_to": "Asset Maintenance Team",
   "link_type": "DocType",
   "onboard": 1,
   "type": "Link"
  },
  {
   "dependencies": "Asset Maintenance Team",
   "hidden": 0,
   "is_query_report": 0,
   "label": "Asset Maintenance",
   "link_count": 0,
   "link_to": "Asset Maintenance",
   "link_type": "DocType",
   "onboard": 1,
   "type": "Link"
  },
  {
   "dependencies": "Asset Maintenance",
   "hidden": 0,
   "is_query_report": 0,
   "label": "Asset Maintenance Log",
   "link_count": 0,
   "link_to": "Asset Maintenance Log",
   "link_type": "DocType",
   "onboard": 0,
   "type": "Link"
  },
  {
   "dependencies": "Asset",
   "hidden": 0,
   "is_query_report": 0,
   "label": "Asset Value Adjustment",
   "link_count": 0,
   "link_to": "Asset Value Adjustment",
   "link_type": "DocType",
   "onboard": 0,
   "type": "Link"
  },
  {
   "dependencies": "Asset",
   "hidden": 0,
   "is_query_report": 0,
   "label": "Asset Repair",
   "link_count": 0,
   "link_to": "Asset Repair",
   "link_type": "DocType",
   "onboard": 0,
   "type": "Link"
  },
  {
   "hidden": 0,
   "is_query_report": 0,
   "label": "Reports",
   "link_count": 0,
   "onboard": 0,
   "type": "Card Break"
  },
  {
   "dependencies": "Asset",
   "hidden": 0,
   "is_query_report": 1,
   "label": "Asset Depreciation Ledger",
   "link_count": 0,
   "link_to": "Asset Depreciation Ledger",
   "link_type": "Report",
   "onboard": 0,
   "type": "Link"
  },
  {
   "dependencies": "Asset",
   "hidden": 0,
   "is_query_report": 1,
   "label": "Asset Depreciations and Balances",
   "link_count": 0,
   "link_to": "Asset Depreciations and Balances",
   "link_type": "Report",
   "onboard": 0,
   "type": "Link"
  },
  {
   "dependencies": "Asset Maintenance",
   "hidden": 0,
   "is_query_report": 0,
   "label": "Asset Maintenance",
   "link_count": 0,
   "link_to": "Asset Maintenance",
   "link_type": "Report",
   "onboard": 0,
   "type": "Link"
  }
 ],
 "modified": "2021-10-02 07:14:31.228960",
 "modified_by": "Administrator",
 "module": "Assets",
 "name": "Assets",
 "onboarding": "",
 "owner": "Administrator",
 "parent_page": "",
 "pin_to_bottom": 0,
 "pin_to_top": 0,
 "public": 1,
 "roles": [],
 "sequence_id": 4,
 "shortcuts": [
  {
   "label": "Asset",
   "link_to": "Asset",
   "type": "DocType"
  },
  {
   "label": "Asset Category",
   "link_to": "Asset Category",
   "type": "DocType"
  },
  {
   "label": "Fixed Asset Register",
   "link_to": "Fixed Asset Register",
   "type": "Report"
  },
  {
   "label": "Dashboard",
   "link_to": "Asset",
   "type": "Dashboard"
  }
 ],
 "title": "Assets"
}