{
 "category": "",
 "charts": [
  {
   "chart_name": "Item Booking Rate",
   "label": "Item Booking Rate"
  }
 ],
 "content": "[{\"type\": \"chart\", \"data\": {\"chart_name\": \"Item Booking Rate\", \"col\": 12}}, {\"type\": \"spacer\", \"data\": {\"col\": 12}}, {\"type\": \"header\", \"data\": {\"text\": \"Vos raccourcis\", \"level\": 4, \"col\": 12}}, {\"type\": \"shortcut\", \"data\": {\"shortcut_name\": \"Subscription\", \"col\": 4}}, {\"type\": \"shortcut\", \"data\": {\"shortcut_name\": \"Event\", \"col\": 4}}, {\"type\": \"shortcut\", \"data\": {\"shortcut_name\": \"Item Booking\", \"col\": 4}}, {\"type\": \"spacer\", \"data\": {\"col\": 12}}, {\"type\": \"header\", \"data\": {\"text\": \"Rapports et donn\\u00e9es de base\", \"level\": 4, \"col\": 12}}, {\"type\": \"card\", \"data\": {\"card_name\": \"Subscription\", \"col\": 4}}, {\"type\": \"card\", \"data\": {\"card_name\": \"Bookings and events\", \"col\": 4}}, {\"type\": \"card\", \"data\": {\"card_name\": \"Booking Credits\", \"col\": 4}}, {\"type\": \"card\", \"data\": {\"card_name\": \"Website and Portal\", \"col\": 4}}, {\"type\": \"card\", \"data\": {\"card_name\": \"Tools\", \"col\": 4}}, {\"type\": \"card\", \"data\": {\"card_name\": \"Reports\", \"col\": 4}}]",
 "creation": "2021-02-02 11:00:01.290986",
 "developer_mode_only": 0,
 "disable_user_customization": 0,
 "docstatus": 0,
 "doctype": "Workspace",
 "extends": "",
 "extends_another_page": 0,
 "hide_custom": 0,
 "icon": "map",
 "idx": 0,
 "is_default": 0,
 "is_standard": 1,
 "label": "Venue",
 "links": [
  {
   "hidden": 0,
   "is_query_report": 0,
   "label": "Subscription",
   "link_count": 0,
   "link_type": "DocType",
   "onboard": 0,
   "type": "Card Break"
  },
  {
   "hidden": 0,
   "is_query_report": 0,
   "label": "Subscription",
   "link_count": 0,
   "link_to": "Subscription",
   "link_type": "DocType",
   "onboard": 0,
   "type": "Link"
  },
  {
   "hidden": 0,
   "is_query_report": 0,
   "label": "Subscription Plan",
   "link_count": 0,
   "link_to": "Subscription Plan",
   "link_type": "DocType",
   "onboard": 0,
   "type": "Link"
  },
  {
   "hidden": 0,
   "is_query_report": 0,
   "label": "Subscription Template",
   "link_count": 0,
   "link_to": "Subscription Template",
   "link_type": "DocType",
   "onboard": 0,
   "type": "Link"
  },
  {
   "hidden": 0,
   "is_query_report": 0,
   "label": "Bookings and events",
   "link_count": 0,
   "link_type": "DocType",
   "onboard": 0,
   "type": "Card Break"
  },
  {
   "hidden": 0,
   "is_query_report": 0,
   "label": "Event",
   "link_count": 0,
   "link_to": "Event",
   "link_type": "DocType",
   "onboard": 0,
   "type": "Link"
  },
  {
   "hidden": 0,
   "is_query_report": 0,
   "label": "Item Booking",
   "link_count": 0,
   "link_to": "Item Booking",
   "link_type": "DocType",
   "onboard": 0,
   "type": "Link"
  },
  {
   "hidden": 0,
   "is_query_report": 0,
   "label": "Event Slot",
   "link_count": 0,
   "link_to": "Event Slot",
   "link_type": "DocType",
   "onboard": 0,
   "type": "Link"
  },
  {
   "hidden": 0,
   "is_query_report": 0,
   "label": "Event Slot Booking",
   "link_count": 0,
   "link_to": "Event Slot Booking",
   "link_type": "DocType",
   "onboard": 0,
   "type": "Link"
  },
  {
   "hidden": 0,
   "is_query_report": 0,
   "label": "Event Registration",
   "link_count": 0,
   "link_to": "Event Registration",
   "link_type": "DocType",
   "onboard": 0,
   "type": "Link"
  },
  {
   "hidden": 0,
   "is_query_report": 0,
   "label": "Item Booking Calendar",
   "link_count": 0,
   "link_to": "Item Booking Calendar",
   "link_type": "DocType",
   "onboard": 0,
   "type": "Link"
  },
  {
   "hidden": 0,
   "is_query_report": 0,
   "label": "Venue Settings",
   "link_count": 0,
   "link_to": "Venue Settings",
   "link_type": "DocType",
   "onboard": 0,
   "type": "Link"
  },
  {
   "hidden": 0,
   "is_query_report": 0,
   "label": "Booking Credits",
   "link_count": 0,
   "link_type": "DocType",
   "onboard": 0,
   "type": "Card Break"
  },
  {
   "hidden": 0,
   "is_query_report": 0,
   "label": "Booking Credit",
   "link_count": 0,
   "link_to": "Booking Credit",
   "link_type": "DocType",
   "onboard": 0,
   "type": "Link"
  },
  {
   "hidden": 0,
   "is_query_report": 0,
   "label": "Booking Credit Usage",
   "link_count": 0,
   "link_to": "Booking Credit Usage",
   "link_type": "DocType",
   "onboard": 0,
   "type": "Link"
  },
  {
   "hidden": 0,
   "is_query_report": 0,
   "label": "Booking Credits Balance",
   "link_count": 0,
   "link_to": "booking-credits",
   "link_type": "Page",
   "onboard": 0,
   "type": "Link"
  },
  {
   "hidden": 0,
   "is_query_report": 0,
   "label": "Booking Credit Rule",
   "link_count": 0,
   "link_to": "Booking Credit Rule",
   "link_type": "DocType",
   "onboard": 0,
   "type": "Link"
  },
  {
   "hidden": 0,
   "is_query_report": 0,
   "label": "Booking Credit Conversion",
   "link_count": 0,
   "link_to": "Booking Credit Conversion",
   "link_type": "DocType",
   "onboard": 0,
   "type": "Link"
  },
  {
   "hidden": 0,
   "is_query_report": 0,
   "label": "Website and Portal",
   "link_count": 0,
   "link_type": "DocType",
   "onboard": 0,
   "type": "Card Break"
  },
  {
   "hidden": 0,
   "is_query_report": 0,
   "label": "Website Settings",
   "link_count": 0,
   "link_to": "Website Settings",
   "link_type": "DocType",
   "onboard": 0,
   "type": "Link"
  },
  {
   "hidden": 0,
   "is_query_report": 0,
   "label": "Portal Settings",
   "link_count": 0,
   "link_to": "Portal Settings",
   "link_type": "DocType",
   "onboard": 0,
   "type": "Link"
  },
  {
   "hidden": 0,
   "is_query_report": 0,
   "label": "Shopping Cart Settings",
   "link_count": 0,
   "link_to": "Shopping Cart Settings",
   "link_type": "DocType",
   "onboard": 0,
   "type": "Link"
  },
  {
   "hidden": 0,
   "is_query_report": 0,
   "label": "Help Category",
   "link_count": 0,
   "link_to": "Help Category",
   "link_type": "DocType",
   "onboard": 0,
   "type": "Link"
  },
  {
   "hidden": 0,
   "is_query_report": 0,
   "label": "Help Article",
   "link_count": 0,
   "link_to": "Help Article",
   "link_type": "DocType",
   "onboard": 0,
   "type": "Link"
  },
  {
   "hidden": 0,
   "is_query_report": 0,
   "label": "Tools",
   "link_count": 0,
   "link_type": "DocType",
   "onboard": 0,
   "type": "Card Break"
  },
  {
   "hidden": 0,
   "is_query_report": 0,
   "label": "Newsletter",
   "link_count": 0,
   "link_to": "Newsletter",
   "link_type": "DocType",
   "onboard": 0,
   "type": "Link"
  },
  {
   "hidden": 0,
   "is_query_report": 0,
   "label": "Email Campaign",
   "link_count": 0,
   "link_to": "Email Campaign",
   "link_type": "DocType",
   "onboard": 0,
   "type": "Link"
  },
  {
   "hidden": 0,
   "is_query_report": 0,
   "label": "Reports",
   "link_count": 0,
   "link_type": "DocType",
   "onboard": 0,
   "type": "Card Break"
  },
  {
   "hidden": 0,
   "is_query_report": 1,
   "label": "Item Booking Rate",
   "link_count": 0,
   "link_to": "Item Booking Rate",
   "link_type": "Report",
   "onboard": 0,
   "type": "Link"
  }
 ],
 "modified": "2021-10-02 07:14:32.462243",
 "modified_by": "Administrator",
 "module": "Venue",
 "name": "Venue",
 "onboarding": "",
 "owner": "Administrator",
 "parent_page": "",
 "pin_to_bottom": 0,
 "pin_to_top": 0,
 "public": 1,
 "restrict_to_domain": "Venue",
 "roles": [],
 "sequence_id": 13,
 "shortcuts": [
  {
   "doc_view": "List",
   "label": "Subscription",
   "link_to": "Subscription",
   "type": "DocType"
  },
  {
   "doc_view": "List",
   "label": "Event",
   "link_to": "Event",
   "type": "DocType"
  },
  {
   "doc_view": "List",
   "label": "Item Booking",
   "link_to": "Item Booking",
   "type": "DocType"
  }
 ],
 "title": "Venue"
}